[{
    "city": "Bogota",
    "code": "co"
},
{
    "city": "Lima",
    "code": "pe"
},
{
    "city": "Quito",
    "code": "ec"
},
{
    "city": "Villavicencio",
    "code": "co"
},
{
    "city": "Buenos Aires",
    "code": "ar"
}]